{
  "contacts": [
    {
      "name": "Joe Defoe",
      "email": "joe.defoe@gmail.com",
      "id": "Bct_hzKVUcUAX3Zw1hGjT"
    },
    {
      "name": "Alan Turing",
      "email": "alan.turing@gmail.com",
      "id": "yHGQq8yyIVKIWqfs5wlQk"
    }
  ]
}